…
But let's return to this finding about torture because we can also look at which countries are the main culprits. 

````r
#keywords by cases, filter torture, with confirmed merits and/or violations
decisions %>%
  mutate(sep_keywords = strsplit(as.character(Keywords), ",")) %>%
  unnest(sep_keywords) %>%
  group_by(sep_keywords, Outcome, Country) %>%
  filter(Outcome == "merits - violation" & sep_keywords == "Torture / ill-treatment") %>%
  summarise(keyword_violations = n()) %>%
  arrange(desc(keyword_violations))
  
  
# A tibble: 51 x 4
# Groups:   sep_keywords, Outcome [1]
              sep_keywords            Outcome            Country keyword_violations
                     <chr>              <chr>              <chr>              <int>
 1 Torture / ill-treatment merits - violation            Jamaica                 54
 2 Torture / ill-treatment merits - violation            Algeria                 29
 3 Torture / ill-treatment merits - violation            Uruguay                 22
 4 Torture / ill-treatment merits - violation         Uzbekistan                 22
 5 Torture / ill-treatment merits - violation         Tajikistan                 18
 6 Torture / ill-treatment merits - violation            Denmark                 16
 7 Torture / ill-treatment merits - violation              Libya                 16
 8 Torture / ill-treatment merits - violation              Nepal                 14
 9 Torture / ill-treatment merits - violation Russian Federation                 14
10 Torture / ill-treatment merits - violation             Canada                 13
# ... with 41 more rows
…
