…
osce_reports$country <- str_to_title(str_extract(osce_reports$filename, pattern_country))

#add an 'organization' column specifying the organization 
osce_report$organization <- "OSCE"

#finally, convert the 'year' column to POSIxct
osce_reports$year <- as.Date(paste(osce_reports$year, 1, 1, sep = "-"))

~~~
I finally had a dataframe as a "one-row-per-term document" for tidy analysis. 

~~~
# A tibble: 1,171,527 x 6
                  filename      type       year    country           word organization
                     <chr>     <chr>     <date>     <fctr>          <chr>        <chr>
 1 uzbekistan_pres2007.pdf President 2007-01-01 Uzbekistan           2.85         OSCE
 2 uzbekistan_pres2007.pdf President 2007-01-01 Uzbekistan        420,815         OSCE
 3 uzbekistan_pres2007.pdf President 2007-01-01 Uzbekistan        434,111         OSCE
 4 uzbekistan_pres2007.pdf President 2007-01-01 Uzbekistan          88.10         OSCE
 5 uzbekistan_pres2007.pdf President 2007-01-01 Uzbekistan liberalisation         OSCE
 6 uzbekistan_pres2007.pdf President 2007-01-01 Uzbekistan     approprate         OSCE
 7 uzbekistan_pres2007.pdf President 2007-01-01 Uzbekistan            2,5         OSCE
 8 uzbekistan_pres2007.pdf President 2007-01-01 Uzbekistan         akhtam         OSCE
 9 uzbekistan_pres2007.pdf President 2007-01-01 Uzbekistan   commission63         OSCE
10 uzbekistan_pres2007.pdf President 2007-01-01 Uzbekistan        diloram         OSCE
# ... with 1,171,517 more rows
…
There are relatively few references to fraud in almost two decades worth of reports. But there were two years where mentions of fraud were quite high, in 2009 and 2014. What elections might have contributed to this?

~~~
# A tibble: 117 x 3
# Groups:   year [15]
         year       country  word
       <date>         <chr> <int>
 1 2009-01-01   Afghanistan   116
 2 2014-01-01   Afghanistan   104
 3 2007-01-01       Nigeria    46
 4 2005-01-01   Afghanistan    30
 5 2003-01-01       Nigeria    18
 6 2008-01-01 United States    13
 7 2009-01-01    Mozambique    12
 8 2010-01-01       Britain    11
 9 2010-01-01     Nicaragua    11
10 2006-01-01     Nicaragua    10
# ... with 107 more rows
…
