…
osce_reports$country <- str_to_title(str_extract(osce_reports$filename, pattern_country))

#add an 'organization' column specifying the organization 
osce_report$organization <- "OSCE"

#finally, convert the 'year' column to POSIxct
osce_reports$year <- as.Date(paste(osce_reports$year, 1, 1, sep = "-"))

~~~
I finally had a dataframe as a "one-row-per-term document" for tidy analysis. 

~~~
# A tibble: 1,171,527 x 6
                  filename      type       year    country           word organization
                     <chr>     <chr>     <date>     <fctr>          <chr>        <chr>
 1 uzbekistan_pres2007.pdf President 2007-01-01 Uzbekistan           2.85         OSCE
 2 uzbekistan_pres2007.pdf President 2007-01-01 Uzbekistan        420,815         OSCE
 3 uzbekistan_pres2007.pdf President 2007-01-01 Uzbekistan        434,111         OSCE
 4 uzbekistan_pres2007.pdf President 2007-01-01 Uzbekistan          88.10         OSCE
 5 uzbekistan_pres2007.pdf President 2007-01-01 Uzbekistan liberalisation         OSCE
 6 uzbekistan_pres2007.pdf President 2007-01-01 Uzbekistan     approprate         OSCE
 7 uzbekistan_pres2007.pdf President 2007-01-01 Uzbekistan            2,5         OSCE
 8 uzbekistan_pres2007.pdf President 2007-01-01 Uzbekistan         akhtam         OSCE
 9 uzbekistan_pres2007.pdf President 2007-01-01 Uzbekistan   commission63         OSCE
10 uzbekistan_pres2007.pdf President 2007-01-01 Uzbekistan        diloram         OSCE
# ... with 1,171,517 more rows
…
